^C:\PROFESIONAL\OCTAVO\GRAFICAS\TEXTURAS\ORIAMDEGYVES-201911-TC3022-1-GRAFICAS-COMPUTACIONALES-8207792E2019\BIN\COMPUTER GRAPHICS\INTERMEDIATES\MAIN.OBJ|C:\PROFESIONAL\OCTAVO\GRAFICAS\TEXTURAS\ORIAMDEGYVES-201911-TC3022-1-GRAFICAS-COMPUTACIONALES-8207792E2019\BIN\COMPUTER GRAPHICS\INTERMEDIATES\SCENE_CIRCLE.OBJ|C:\PROFESIONAL\OCTAVO\GRAFICAS\TEXTURAS\ORIAMDEGYVES-201911-TC3022-1-GRAFICAS-COMPUTACIONALES-8207792E2019\BIN\COMPUTER GRAPHICS\INTERMEDIATES\SCENE_CIRCLE_GRID.OBJ|C:\PROFESIONAL\OCTAVO\GRAFICAS\TEXTURAS\ORIAMDEGYVES-201911-TC3022-1-GRAFICAS-COMPUTACIONALES-8207792E2019\BIN\COMPUTER GRAPHICS\INTERMEDIATES\SCENE_COMPATIBILITY.OBJ|C:\PROFESIONAL\OCTAVO\GRAFICAS\TEXTURAS\ORIAMDEGYVES-201911-TC3022-1-GRAFICAS-COMPUTACIONALES-8207792E2019\BIN\COMPUTER GRAPHICS\INTERMEDIATES\SCENE_CUBE.OBJ|C:\PROFESIONAL\OCTAVO\GRAFICAS\TEXTURAS\ORIAMDEGYVES-201911-TC3022-1-GRAFICAS-COMPUTACIONALES-8207792E2019\BIN\COMPUTER GRAPHICS\INTERMEDIATES\SCENE_FRAGMENT.OBJ|C:\PROFESIONAL\OCTAVO\GRAFICAS\TEXTURAS\ORIAMDEGYVES-201911-TC3022-1-GRAFICAS-COMPUTACIONALES-8207792E2019\BIN\COMPUTER GRAPHICS\INTERMEDIATES\SCENE_LLUVIA.OBJ|C:\PROFESIONAL\OCTAVO\GRAFICAS\TEXTURAS\ORIAMDEGYVES-201911-TC3022-1-GRAFICAS-COMPUTACIONALES-8207792E2019\BIN\COMPUTER GRAPHICS\INTERMEDIATES\SCENE_MANAGER.OBJ|C:\PROFESIONAL\OCTAVO\GRAFICAS\TEXTURAS\ORIAMDEGYVES-201911-TC3022-1-GRAFICAS-COMPUTACIONALES-8207792E2019\BIN\COMPUTER GRAPHICS\INTERMEDIATES\SCENE_PRIMITIVES.OBJ|C:\PROFESIONAL\OCTAVO\GRAFICAS\TEXTURAS\ORIAMDEGYVES-201911-TC3022-1-GRAFICAS-COMPUTACIONALES-8207792E2019\BIN\COMPUTER GRAPHICS\INTERMEDIATES\SCENE_SPHERE.OBJ|C:\PROFESIONAL\OCTAVO\GRAFICAS\TEXTURAS\ORIAMDEGYVES-201911-TC3022-1-GRAFICAS-COMPUTACIONALES-8207792E2019\BIN\COMPUTER GRAPHICS\INTERMEDIATES\SCENE_VERTEX.OBJ|C:\PROFESIONAL\OCTAVO\GRAFICAS\TEXTURAS\ORIAMDEGYVES-201911-TC3022-1-GRAFICAS-COMPUTACIONALES-8207792E2019\BIN\MATH\MATH.LIB|C:\PROFESIONAL\OCTAVO\GRAFICAS\TEXTURAS\ORIAMDEGYVES-201911-TC3022-1-GRAFICAS-COMPUTACIONALES-8207792E2019\BIN\UTIL\UTIL.LIB
C:\PROFESIONAL\OCTAVO\GRAFICAS\TEXTURAS\ORIAMDEGYVES-201911-TC3022-1-GRAFICAS-COMPUTACIONALES-8207792E2019\BIN\COMPUTER GRAPHICS\COMPUTER GRAPHICS.EXE
C:\PROFESIONAL\OCTAVO\GRAFICAS\TEXTURAS\ORIAMDEGYVES-201911-TC3022-1-GRAFICAS-COMPUTACIONALES-8207792E2019\BIN\COMPUTER GRAPHICS\COMPUTER GRAPHICS.ILK
C:\PROFESIONAL\OCTAVO\GRAFICAS\TEXTURAS\ORIAMDEGYVES-201911-TC3022-1-GRAFICAS-COMPUTACIONALES-8207792E2019\BIN\COMPUTER GRAPHICS\COMPUTER GRAPHICS.PDB
